…
single_zoom_transcript_df
#> # A tibble: 102 × 9
#>    comment_num name      comment start     end        duration raw_start raw_end
#>    <chr>       <chr>     <chr>   <time>    <time>     <drtn>   <chr>     <chr>  
#>  1 1           Srijani … Hi!     00'00.05" 00'01.790"  1.740 … 00:00:00… 00:00:…
#>  2 2           Conor He… Get th… 00'02.07" 00'04.050"  1.980 … 00:00:02… 00:00:…
#>  3 3           Srijani … Hello!… 00'05.14" 00'08.310"  3.170 … 00:00:05… 00:00:…
#>  4 4           Srijani … So      00'09.71" 00'11.670"  1.960 … 00:00:09… 00:00:…
#>  5 5           Conor He… let's … 00'12.16" 00'14.309"  2.149 … 00:00:12… 00:00:…
#>  6 6           Conor He… Studen… 00'14.55" 00'30.599" 16.049 … 00:00:14… 00:00:…
#>  7 7           Conor He… that.   00'31.44" 00'32.390"  0.950 … 00:00:31… 00:00:…
#>  8 8           Dr. Meli… and I'… 00'32.52" 00'43.089" 10.569 … 00:00:32… 00:00:…
#>  9 9           Dr. Meli… Can yo… 00'43.50" 00'51.110"  7.610 … 00:00:43… 00:00:…
#> 10 10          Dr. Meli… yeah, … 00'51.13" 00'58.459"  7.329 … 00:00:51… 00:00:…
#> # ℹ 92 more rows
#> # ℹ 1 more variable: wordcount <int>
```
…
``` r
processed_zoom_transcript_df <- process_zoom_transcript(
  # transcript_file_path = NULL,
  # consolidate_comments = TRUE,
  # max_pause_sec = 1,
  # add_dead_air = TRUE,
  # dead_air_name = 'dead_air',
  # na_name = 'unknown',
  transcript_df = single_zoom_transcript_df
)

processed_zoom_transcript_df
#> # A tibble: 90 × 9
#>    comment_num name       comment start     end       duration wordcount raw_end
#>          <int> <chr>      <chr>   <time>    <time>    <drtn>       <int> <lgl>  
#>  1           1 dead_air   <NA>    00'00.00" 00'00.05"  0.0499…        NA NA     
#>  2           2 Srijani G… Hi!     00'00.05" 00'01.79"  1.7400…         1 NA     
#>  3           3 dead_air   <NA>    00'01.79" 00'02.07"  0.2799…        NA NA     
#>  4           4 Conor Hea… Get th… 00'02.07" 00'04.05"  1.9800…         4 NA     
#>  5           5 dead_air   <NA>    00'04.05" 00'05.14"  1.0900…        NA NA     
#>  6           6 Srijani G… Hello!… 00'05.14" 00'08.31"  3.1699…         8 NA     
#>  7           7 dead_air   <NA>    00'08.31" 00'09.71"  1.4000…        NA NA     
#>  8           8 Srijani G… So      00'09.71" 00'11.67"  1.9600…         1 NA     
#>  9           9 dead_air   <NA>    00'11.67" 00'12.16"  0.4900…        NA NA     
#> 10          10 Conor Hea… let's … 00'12.16" 00'32.39" 20.2300…        38 NA     
#> # ℹ 80 more rows
#> # ℹ 1 more variable: raw_start <lgl>
```
…
